M48
METRIC,TZ
T01C1.2700
T02C1.0160
T03C1.7780
%
T01
X+3048Y+32310
X+8128Y+4345
X+8128Y+6885
X+18288Y+4345
X+20828Y+6885
X+23368Y+4345
X+23368Y+6885
X+25908Y+4345
X+25908Y+6885
X+38608Y+17045
X+41148Y+19585
X+38608Y+19585
X+38608Y+22125
X+41148Y+24665
X+28448Y+32310
X+25908Y+34850
X+25908Y+32310
X+23368Y+34850
X+18288Y+34850
X+15748Y+32310
X+41148Y+22125
X+20828Y+32310
X+5588Y+32310
X+41148Y+17045
X+3048Y+19610
X+20828Y+4345
X+38608Y+24665
X+18288Y+6885
X+20828Y+34850
X+5588Y+22150
T02
X+1868Y+10230
X+1868Y+12770
X+1868Y+15310
X+36728Y+6670
X+39268Y+6670
X+41808Y+6670
X+28768Y+6670
X+31308Y+6670
X+33848Y+6670
X+15848Y+6670
X+13308Y+6670
X+10768Y+6670
X+13268Y+34670
X+10728Y+34670
X+8188Y+34670
X+5168Y+9410
X+5168Y+6870
X+5168Y+4330
X+31768Y+31170
X+31768Y+33710
X+25868Y+28670
X+25868Y+26130
X+25868Y+23590
X+25868Y+21050
X+35768Y+16970
X+24468Y+16170
X+27008Y+16170
X+29548Y+16170
X+32088Y+16170
X+32088Y+13630
X+29548Y+13630
X+27008Y+13630
X+24468Y+13630
T03
X+16166Y+24964
X+16166Y+20464
M30
